{
"AddressTableVersion"   : [ 33 ],
"general_item"  : [0 , 0],
"hbm_item"  : [0 , 0],
"tcp_stream"  : [0 , 424 , 848 , 1272 , 1696 , 2120 , 2544 , 2968 , 3392 , 3816 , 4240 , 4664 , 0],
"DAQ_eth_100Gb" : [0 , 616 , 1232 , 0],
"scouting_registers"  : [0 , 0],
"Nul_Offset" : [0]
}
